[gd_scene load_steps=3 format=2]

[ext_resource path="res://Systems/ScoreManagerMono/PnlTimeout.gd" type="Script" id=1]
[ext_resource path="res://Interface/Themes/SomethingMissing.tres" type="Theme" id=2]

[node name="PnlTimeout" type="Panel"]
anchor_right = 1.0
anchor_bottom = 1.0
margin_left = 352.0
margin_top = 203.0
margin_right = -302.0
margin_bottom = -213.0
theme = ExtResource( 2 )
script = ExtResource( 1 )
__meta__ = {
"_edit_use_anchors_": false
}

[node name="LblTimeout" type="Label" parent="."]
margin_left = 7.0
margin_top = -1.38422
margin_right = 299.0
margin_bottom = 55.6158
text = "Leaderboard connection timed out"
align = 1
valign = 1
__meta__ = {
"_edit_use_anchors_": false
}

[node name="BtnClose" type="Button" parent="."]
margin_left = 116.969
margin_top = 81.7937
margin_right = 188.969
margin_bottom = 102.794
text = "Close"
__meta__ = {
"_edit_use_anchors_": false
}

[node name="TimerConnect" type="Timer" parent="."]
wait_time = 10.0
one_shot = true
[connection signal="pressed" from="BtnClose" to="." method="_on_BtnClose_pressed"]
[connection signal="timeout" from="TimerConnect" to="." method="_on_TimerConnect_timeout"]
